…
```r
gapminder_2000s <- gapminder %>% 
  filter(year >= 2000)
gapminder_2000s
```

```
## # A tibble: 284 x 6
##        country continent  year lifeExp      pop  gdpPercap
##         <fctr>    <fctr> <int>   <dbl>    <int>      <dbl>
##  1 Afghanistan      Asia  2002  42.129 25268405   726.7341
##  2 Afghanistan      Asia  2007  43.828 31889923   974.5803
##  3     Albania    Europe  2002  75.651  3508512  4604.2117
##  4     Albania    Europe  2007  76.423  3600523  5937.0295
##  5     Algeria    Africa  2002  70.994 31287142  5288.0404
##  6     Algeria    Africa  2007  72.301 33333216  6223.3675
##  7      Angola    Africa  2002  41.003 10866106  2773.2873
##  8      Angola    Africa  2007  42.731 12420476  4797.2313
##  9   Argentina  Americas  2002  74.340 38331121  8797.6407
## 10   Argentina  Americas  2007  75.320 40301927 12779.3796
## # ... with 274 more rows
```
…
```
## Joining, by = "country"
```

```
## Warning: Column `country` joining factors with different levels, coercing
## to character vector
```

```
## # A tibble: 284 x 8
##        country continent  year lifeExp      pop  gdpPercap capital_city
##          <chr>    <fctr> <int>   <dbl>    <int>      <dbl>       <fctr>
##  1 Afghanistan      Asia  2002  42.129 25268405   726.7341         <NA>
##  2 Afghanistan      Asia  2007  43.828 31889923   974.5803         <NA>
##  3     Albania    Europe  2002  75.651  3508512  4604.2117         <NA>
##  4     Albania    Europe  2007  76.423  3600523  5937.0295         <NA>
##  5     Algeria    Africa  2002  70.994 31287142  5288.0404         <NA>
##  6     Algeria    Africa  2007  72.301 33333216  6223.3675         <NA>
##  7      Angola    Africa  2002  41.003 10866106  2773.2873         <NA>
##  8      Angola    Africa  2007  42.731 12420476  4797.2313         <NA>
##  9   Argentina  Americas  2002  74.340 38331121  8797.6407         <NA>
## 10   Argentina  Americas  2007  75.320 40301927 12779.3796         <NA>
## # ... with 274 more rows, and 1 more variables: Language <fctr>
```
…
```
## Joining, by = "country"
```

```
## Warning: Column `country` joining factors with different levels, coercing
## to character vector
```

```
## # A tibble: 285 x 8
##        country continent  year lifeExp      pop  gdpPercap capital_city
##          <chr>    <fctr> <int>   <dbl>    <int>      <dbl>       <fctr>
##  1 Afghanistan      Asia  2002  42.129 25268405   726.7341         <NA>
##  2 Afghanistan      Asia  2007  43.828 31889923   974.5803         <NA>
##  3     Albania    Europe  2002  75.651  3508512  4604.2117         <NA>
##  4     Albania    Europe  2007  76.423  3600523  5937.0295         <NA>
##  5     Algeria    Africa  2002  70.994 31287142  5288.0404         <NA>
##  6     Algeria    Africa  2007  72.301 33333216  6223.3675         <NA>
##  7      Angola    Africa  2002  41.003 10866106  2773.2873         <NA>
##  8      Angola    Africa  2007  42.731 12420476  4797.2313         <NA>
##  9   Argentina  Americas  2002  74.340 38331121  8797.6407         <NA>
## 10   Argentina  Americas  2007  75.320 40301927 12779.3796         <NA>
## # ... with 275 more rows, and 1 more variables: Language <fctr>
```
…
