…
In addition, `fct_reorder2()` is used for a plot of a quantitative y against another quantitative x. After using `fct_reorder2()`, the order in the legend is changed. In `fct_reorder()`, the default summarizing function is `median()`. However, it seems not to be applied to `fct_reorder2()`. The median value of lifeExp in Canada is higher than that in Australia. However, in the legend after treatment, Australia comes earlier than Canada. The order seems to be ordered by the last value of lifeExp.

```r
#fct_reorder2() 
# a quantitative x against another quantitative y 
h_countries <- c("Korea, Rep.", "Japan", "China", "Canada", "Australia")

h_gap <- gapminder %>%
  filter(country %in% h_countries) %>% 
  droplevels()
h_gap
```

```
## # A tibble: 60 x 6
##      country continent  year lifeExp      pop gdpPercap
##       <fctr>    <fctr> <int>   <dbl>    <int>     <dbl>
##  1 Australia   Oceania  1952   69.12  8691212  10039.60
##  2 Australia   Oceania  1957   70.33  9712569  10949.65
##  3 Australia   Oceania  1962   70.93 10794968  12217.23
##  4 Australia   Oceania  1967   71.10 11872264  14526.12
##  5 Australia   Oceania  1972   71.93 13177000  16788.63
##  6 Australia   Oceania  1977   73.49 14074100  18334.20
##  7 Australia   Oceania  1982   74.74 15184200  19477.01
##  8 Australia   Oceania  1987   76.32 16257249  21888.89
##  9 Australia   Oceania  1992   77.56 17481977  23424.77
## 10 Australia   Oceania  1997   78.83 18565243  26997.94
## # ... with 50 more rows
```
…
```
## [1] "Afghanistan" "Albania"     "Algeria"     "Angola"      "Argentina"  
## [6] "Australia"
```

```r
##Changing the order of `country` factor levels by the maximum of lifeExp.
g4 <- g3 %>% 
  mutate(country = fct_reorder(country, lifeExp_max))
g4
```

```
## # A tibble: 142 x 3
##        country continent lifeExp_max
##         <fctr>    <fctr>       <dbl>
##  1 Afghanistan      Asia      43.828
##  2     Albania    Europe      76.423
##  3     Algeria    Africa      72.301
##  4      Angola    Africa      42.731
##  5   Argentina  Americas      75.320
##  6   Australia   Oceania      81.235
##  7     Austria    Europe      79.829
##  8     Bahrain      Asia      75.635
##  9  Bangladesh      Asia      64.062
## 10     Belgium    Europe      79.441
## # ... with 132 more rows
```
…
```r
h_countries <- c("Korea, Rep.", "Japan", "China", "Canada", "Australia")
gap <- gapminder %>%
  filter(country %in% h_countries) %>% 
  droplevels()
gap %>% 
  mutate(Currency = factor(gap$country, 
                           levels=c("Korea, Rep.", "Japan", "China", "Canada", "Australia"),
                           labels=c("KRW", "JPY", "CNY", "CAD", "AUD"))) %>% 
  arrange(year)
```

```
## # A tibble: 60 x 7
##        country continent  year  lifeExp       pop  gdpPercap Currency
##         <fctr>    <fctr> <int>    <dbl>     <int>      <dbl>   <fctr>
##  1   Australia   Oceania  1952 69.12000   8691212 10039.5956      AUD
##  2      Canada  Americas  1952 68.75000  14785584 11367.1611      CAD
##  3       China      Asia  1952 44.00000 556263527   400.4486      CNY
##  4       Japan      Asia  1952 63.03000  86459025  3216.9563      JPY
##  5 Korea, Rep.      Asia  1952 47.45300  20947571  1030.5922      KRW
##  6   Australia   Oceania  1957 70.33000   9712569 10949.6496      AUD
##  7      Canada  Americas  1957 69.96000  17010154 12489.9501      CAD
##  8       China      Asia  1957 50.54896 637408000   575.9870      CNY
##  9       Japan      Asia  1957 65.50000  91563009  4317.6944      JPY
## 10 Korea, Rep.      Asia  1957 52.68100  22611552  1487.5935      KRW
## # ... with 50 more rows
```
